Data_Types/MS/transcript
vsim -gui work.ripple_carry_adder_tb
# vsim -gui work.ripple_carry_adder_tb 
# Start time: 13:19:30 on Dec 15,2025
# Loading work.ripple_carry_adder_tb
# Loading work.ripple_adder_dataflow
# ** Error: This version of vsim is incompatible with file "C:/School/Verilog_Course/Verilog_Data_Types/Data_Types/MS/work/full_adder_dataflow/_primary.dat".
# ** Fatal: (vsim-3382) New library format is incompatible with this version of the simulator.  Design unit 'C:/School/Verilog_Course/Verilog_Data_Types/Data_Types/MS/work.full_adder_dataflow'
#    Time: 0 ps  Iteration: 0  Instance: /ripple_carry_adder_tb/RC File: C:/School/Verilog_Course/Verilog_Data_Types/Data_Types/Design_Styles_Code/ripple_adder_dataflow.v
# FATAL ERROR while loading design
# Error loading design
# End time: 13:19:30 on Dec 15,2025, Elapsed time: 0:00:00
# Errors: 2, Warnings: 0
do compilescript.do
# Compile of full_adder_structural.v was successful.
# Compile of half_adder_structural.v was successful.
# Compile of ripple_adder_structural.v was successful.
# Compile of ripple_carry_adder_tb.v was successful.
# Compile of ripple_adder_dataflow.v was successful.
# Compile of full_adder_dataflow.v was successful.
# 6 compiles, 0 failed with no errors.
vsim -gui work.ripple_carry_adder_tb
# vsim -gui work.ripple_carry_adder_tb 
# Start time: 13:19:56 on Dec 15,2025
# Loading work.ripple_carry_adder_tb
# Loading work.ripple_adder_dataflow
# Loading work.full_adder_dataflow
# ** Warning: (vsim-WLF-5000) WLF file currently in use: vsim.wlf
#           File in use by: sreer  Hostname: AURORA  ProcessID: 3512
#           Attempting to use alternate WLF file "./wlfterqgmg".
# ** Warning: (vsim-WLF-5001) Could not open WLF file: vsim.wlf
#           Using alternate file: ./wlfterqgmg
run -all
# MON a = xxxx, b = xxxx, cin = x, sum = xxxx, cout = x
# MON a = 0000, b = 0000, cin = 0, sum = 0000, cout = 0
# MON a = 0001, b = 0000, cin = 1, sum = 0010, cout = 0
# MON a = 0001, b = 0001, cin = 0, sum = 0010, cout = 0
# MON a = 0001, b = 0001, cin = 1, sum = 0011, cout = 0
# MON a = 0011, b = 0110, cin = 0, sum = 1001, cout = 0
# MON a = 1111, b = 1111, cin = 1, sum = 1111, cout = 1
# MON a = 0000, b = 0000, cin = 1, sum = 0001, cout = 0
# MON a = 0000, b = 0001, cin = 1, sum = 0010, cout = 0
# MON a = 0000, b = 0010, cin = 1, sum = 0011, cout = 0
# MON a = 0000, b = 0011, cin = 1, sum = 0100, cout = 0
# MON a = 0001, b = 0000, cin = 1, sum = 0010, cout = 0
# MON a = 0001, b = 0001, cin = 1, sum = 0011, cout = 0
# MON a = 0001, b = 0010, cin = 1, sum = 0100, cout = 0
# MON a = 0001, b = 0011, cin = 1, sum = 0101, cout = 0
# MON a = 0010, b = 0000, cin = 1, sum = 0011, cout = 0
# MON a = 0010, b = 0001, cin = 1, sum = 0100, cout = 0
# MON a = 0010, b = 0010, cin = 1, sum = 0101, cout = 0
# MON a = 0010, b = 0011, cin = 1, sum = 0110, cout = 0
# MON a = 0011, b = 0000, cin = 1, sum = 0100, cout = 0
# MON a = 0011, b = 0001, cin = 1, sum = 0101, cout = 0
# MON a = 0011, b = 0010, cin = 1, sum = 0110, cout = 0
# MON a = 0011, b = 0011, cin = 1, sum = 0111, cout = 0
project compilescript.do
# unknown or ambiguous subcommand "compilescript.do": must be addfile, addfolder, calculateorder, close, compileall, compileorder, compileoutofdate, currentsim, delete, env, filenames, history, new, open, removefile, simargs, or startsim
do compilescript.do
# Compile of full_adder_structural.v was successful.
# Compile of half_adder_structural.v was successful.
# Compile of ripple_adder_structural.v was successful.
# Compile of ripple_carry_adder_tb.v was successful.
# Compile of ripple_adder_dataflow.v was successful.
# Compile of full_adder_dataflow.v was successful.
# 6 compiles, 0 failed with no errors.
vsim -gui work.ripple_carry_adder_tb
# End time: 13:21:23 on Dec 15,2025, Elapsed time: 0:01:27
# Errors: 1, Warnings: 2
# vsim -gui work.ripple_carry_adder_tb 
# Start time: 13:21:23 on Dec 15,2025
# Loading work.ripple_carry_adder_tb
# Loading work.ripple_adder_dataflow
# Loading work.full_adder_dataflow
# ** Warning: (vsim-WLF-5000) WLF file currently in use: vsim.wlf
#           File in use by: sreer  Hostname: AURORA  ProcessID: 3512
#           Attempting to use alternate WLF file "./wlftrki46g".
# ** Warning: (vsim-WLF-5001) Could not open WLF file: vsim.wlf
#           Using alternate file: ./wlftrki46g
run -all
# MON a = xxxx, b = xxxx, cin = x, sum = xxxx, cout = x
# MON a = 0000, b = 0000, cin = 0, sum = 0000, cout = 0
# MON a = 0001, b = 0000, cin = 1, sum = 0010, cout = 0
# MON a = 0001, b = 0001, cin = 0, sum = 0010, cout = 0
# MON a = 0001, b = 0001, cin = 1, sum = 0011, cout = 0
# MON a = 0011, b = 0110, cin = 0, sum = 1001, cout = 0
# MON a = 1111, b = 1111, cin = 1, sum = 1111, cout = 1
# MON a = 0000, b = 0000, cin = 1, sum = 0001, cout = 0
# MON a = 0000, b = 0001, cin = 1, sum = 0010, cout = 0
# MON a = 0000, b = 0010, cin = 1, sum = 0011, cout = 0
# MON a = 0000, b = 0011, cin = 1, sum = 0100, cout = 0
# MON a = 0000, b = 0100, cin = 1, sum = 0101, cout = 0
# MON a = 0000, b = 0101, cin = 1, sum = 0110, cout = 0
# MON a = 0000, b = 0110, cin = 1, sum = 0111, cout = 0
# MON a = 0000, b = 0111, cin = 1, sum = 1000, cout = 0
# MON a = 0000, b = 1000, cin = 1, sum = 1001, cout = 0
# MON a = 0000, b = 1001, cin = 1, sum = 1010, cout = 0
# MON a = 0000, b = 1010, cin = 1, sum = 1011, cout = 0
# MON a = 0000, b = 1011, cin = 1, sum = 1100, cout = 0
# MON a = 0000, b = 1100, cin = 1, sum = 1101, cout = 0
# MON a = 0000, b = 1101, cin = 1, sum = 1110, cout = 0
# MON a = 0000, b = 1110, cin = 1, sum = 1111, cout = 0
# MON a = 0000, b = 1111, cin = 1, sum = 0000, cout = 1
# MON a = 0001, b = 0000, cin = 1, sum = 0010, cout = 0
# MON a = 0001, b = 0001, cin = 1, sum = 0011, cout = 0
# MON a = 0001, b = 0010, cin = 1, sum = 0100, cout = 0
# MON a = 0001, b = 0011, cin = 1, sum = 0101, cout = 0
# MON a = 0001, b = 0100, cin = 1, sum = 0110, cout = 0
# MON a = 0001, b = 0101, cin = 1, sum = 0111, cout = 0
# MON a = 0001, b = 0110, cin = 1, sum = 1000, cout = 0
# MON a = 0001, b = 0111, cin = 1, sum = 1001, cout = 0
# MON a = 0001, b = 1000, cin = 1, sum = 1010, cout = 0
# MON a = 0001, b = 1001, cin = 1, sum = 1011, cout = 0
# MON a = 0001, b = 1010, cin = 1, sum = 1100, cout = 0
# MON a = 0001, b = 1011, cin = 1, sum = 1101, cout = 0
# MON a = 0001, b = 1100, cin = 1, sum = 1110, cout = 0
# MON a = 0001, b = 1101, cin = 1, sum = 1111, cout = 0
# MON a = 0001, b = 1110, cin = 1, sum = 0000, cout = 1
# MON a = 0001, b = 1111, cin = 1, sum = 0001, cout = 1
# MON a = 0010, b = 0000, cin = 1, sum = 0011, cout = 0
# MON a = 0010, b = 0001, cin = 1, sum = 0100, cout = 0
# MON a = 0010, b = 0010, cin = 1, sum = 0101, cout = 0
# MON a = 0010, b = 0011, cin = 1, sum = 0110, cout = 0
# MON a = 0010, b = 0100, cin = 1, sum = 0111, cout = 0
# MON a = 0010, b = 0101, cin = 1, sum = 1000, cout = 0
# MON a = 0010, b = 0110, cin = 1, sum = 1001, cout = 0
# MON a = 0010, b = 0111, cin = 1, sum = 1010, cout = 0
# MON a = 0010, b = 1000, cin = 1, sum = 1011, cout = 0
# MON a = 0010, b = 1001, cin = 1, sum = 1100, cout = 0
# MON a = 0010, b = 1010, cin = 1, sum = 1101, cout = 0
# MON a = 0010, b = 1011, cin = 1, sum = 1110, cout = 0
# MON a = 0010, b = 1100, cin = 1, sum = 1111, cout = 0
# MON a = 0010, b = 1101, cin = 1, sum = 0000, cout = 1
# MON a = 0010, b = 1110, cin = 1, sum = 0001, cout = 1
# MON a = 0010, b = 1111, cin = 1, sum = 0010, cout = 1
# MON a = 0011, b = 0000, cin = 1, sum = 0100, cout = 0
# MON a = 0011, b = 0001, cin = 1, sum = 0101, cout = 0
# MON a = 0011, b = 0010, cin = 1, sum = 0110, cout = 0
# MON a = 0011, b = 0011, cin = 1, sum = 0111, cout = 0
# MON a = 0011, b = 0100, cin = 1, sum = 1000, cout = 0
# MON a = 0011, b = 0101, cin = 1, sum = 1001, cout = 0
# MON a = 0011, b = 0110, cin = 1, sum = 1010, cout = 0
# MON a = 0011, b = 0111, cin = 1, sum = 1011, cout = 0
# MON a = 0011, b = 1000, cin = 1, sum = 1100, cout = 0
# MON a = 0011, b = 1001, cin = 1, sum = 1101, cout = 0
# MON a = 0011, b = 1010, cin = 1, sum = 1110, cout = 0
# MON a = 0011, b = 1011, cin = 1, sum = 1111, cout = 0
# MON a = 0011, b = 1100, cin = 1, sum = 0000, cout = 1
# MON a = 0011, b = 1101, cin = 1, sum = 0001, cout = 1
# MON a = 0011, b = 1110, cin = 1, sum = 0010, cout = 1
# MON a = 0011, b = 1111, cin = 1, sum = 0011, cout = 1
# MON a = 0100, b = 0000, cin = 1, sum = 0101, cout = 0
# MON a = 0100, b = 0001, cin = 1, sum = 0110, cout = 0
# MON a = 0100, b = 0010, cin = 1, sum = 0111, cout = 0
# MON a = 0100, b = 0011, cin = 1, sum = 1000, cout = 0
# MON a = 0100, b = 0100, cin = 1, sum = 1001, cout = 0
# MON a = 0100, b = 0101, cin = 1, sum = 1010, cout = 0
# MON a = 0100, b = 0110, cin = 1, sum = 1011, cout = 0
# MON a = 0100, b = 0111, cin = 1, sum = 1100, cout = 0
# MON a = 0100, b = 1000, cin = 1, sum = 1101, cout = 0
# MON a = 0100, b = 1001, cin = 1, sum = 1110, cout = 0
# MON a = 0100, b = 1010, cin = 1, sum = 1111, cout = 0
# MON a = 0100, b = 1011, cin = 1, sum = 0000, cout = 1
# MON a = 0100, b = 1100, cin = 1, sum = 0001, cout = 1
# MON a = 0100, b = 1101, cin = 1, sum = 0010, cout = 1
# MON a = 0100, b = 1110, cin = 1, sum = 0011, cout = 1
# MON a = 0100, b = 1111, cin = 1, sum = 0100, cout = 1
# MON a = 0101, b = 0000, cin = 1, sum = 0110, cout = 0
# MON a = 0101, b = 0001, cin = 1, sum = 0111, cout = 0
# MON a = 0101, b = 0010, cin = 1, sum = 1000, cout = 0
# MON a = 0101, b = 0011, cin = 1, sum = 1001, cout = 0
# MON a = 0101, b = 0100, cin = 1, sum = 1010, cout = 0
# MON a = 0101, b = 0101, cin = 1, sum = 1011, cout = 0
# MON a = 0101, b = 0110, cin = 1, sum = 1100, cout = 0
# MON a = 0101, b = 0111, cin = 1, sum = 1101, cout = 0
# MON a = 0101, b = 1000, cin = 1, sum = 1110, cout = 0
# MON a = 0101, b = 1001, cin = 1, sum = 1111, cout = 0
# MON a = 0101, b = 1010, cin = 1, sum = 0000, cout = 1
# MON a = 0101, b = 1011, cin = 1, sum = 0001, cout = 1
# MON a = 0101, b = 1100, cin = 1, sum = 0010, cout = 1
# MON a = 0101, b = 1101, cin = 1, sum = 0011, cout = 1
# MON a = 0101, b = 1110, cin = 1, sum = 0100, cout = 1
# MON a = 0101, b = 1111, cin = 1, sum = 0101, cout = 1
# MON a = 0110, b = 0000, cin = 1, sum = 0111, cout = 0
# MON a = 0110, b = 0001, cin = 1, sum = 1000, cout = 0
# MON a = 0110, b = 0010, cin = 1, sum = 1001, cout = 0
# MON a = 0110, b = 0011, cin = 1, sum = 1010, cout = 0
# MON a = 0110, b = 0100, cin = 1, sum = 1011, cout = 0
# MON a = 0110, b = 0101, cin = 1, sum = 1100, cout = 0
# MON a = 0110, b = 0110, cin = 1, sum = 1101, cout = 0
# MON a = 0110, b = 0111, cin = 1, sum = 1110, cout = 0
# MON a = 0110, b = 1000, cin = 1, sum = 1111, cout = 0
# MON a = 0110, b = 1001, cin = 1, sum = 0000, cout = 1
# MON a = 0110, b = 1010, cin = 1, sum = 0001, cout = 1
# MON a = 0110, b = 1011, cin = 1, sum = 0010, cout = 1
# MON a = 0110, b = 1100, cin = 1, sum = 0011, cout = 1
# MON a = 0110, b = 1101, cin = 1, sum = 0100, cout = 1
# MON a = 0110, b = 1110, cin = 1, sum = 0101, cout = 1
# MON a = 0110, b = 1111, cin = 1, sum = 0110, cout = 1
# MON a = 0111, b = 0000, cin = 1, sum = 1000, cout = 0
# MON a = 0111, b = 0001, cin = 1, sum = 1001, cout = 0
# MON a = 0111, b = 0010, cin = 1, sum = 1010, cout = 0
# MON a = 0111, b = 0011, cin = 1, sum = 1011, cout = 0
# MON a = 0111, b = 0100, cin = 1, sum = 1100, cout = 0
# MON a = 0111, b = 0101, cin = 1, sum = 1101, cout = 0
# MON a = 0111, b = 0110, cin = 1, sum = 1110, cout = 0
# MON a = 0111, b = 0111, cin = 1, sum = 1111, cout = 0
# MON a = 0111, b = 1000, cin = 1, sum = 0000, cout = 1
# MON a = 0111, b = 1001, cin = 1, sum = 0001, cout = 1
# MON a = 0111, b = 1010, cin = 1, sum = 0010, cout = 1
# MON a = 0111, b = 1011, cin = 1, sum = 0011, cout = 1
# MON a = 0111, b = 1100, cin = 1, sum = 0100, cout = 1
# MON a = 0111, b = 1101, cin = 1, sum = 0101, cout = 1
# MON a = 0111, b = 1110, cin = 1, sum = 0110, cout = 1
# MON a = 0111, b = 1111, cin = 1, sum = 0111, cout = 1
# MON a = 1000, b = 0000, cin = 1, sum = 1001, cout = 0
# MON a = 1000, b = 0001, cin = 1, sum = 1010, cout = 0
# MON a = 1000, b = 0010, cin = 1, sum = 1011, cout = 0
# MON a = 1000, b = 0011, cin = 1, sum = 1100, cout = 0
# MON a = 1000, b = 0100, cin = 1, sum = 1101, cout = 0
# MON a = 1000, b = 0101, cin = 1, sum = 1110, cout = 0
# MON a = 1000, b = 0110, cin = 1, sum = 1111, cout = 0
# MON a = 1000, b = 0111, cin = 1, sum = 0000, cout = 1
# MON a = 1000, b = 1000, cin = 1, sum = 0001, cout = 1
# MON a = 1000, b = 1001, cin = 1, sum = 0010, cout = 1
# MON a = 1000, b = 1010, cin = 1, sum = 0011, cout = 1
# MON a = 1000, b = 1011, cin = 1, sum = 0100, cout = 1
# MON a = 1000, b = 1100, cin = 1, sum = 0101, cout = 1
# MON a = 1000, b = 1101, cin = 1, sum = 0110, cout = 1
# MON a = 1000, b = 1110, cin = 1, sum = 0111, cout = 1
# MON a = 1000, b = 1111, cin = 1, sum = 1000, cout = 1
# MON a = 1001, b = 0000, cin = 1, sum = 1010, cout = 0
# MON a = 1001, b = 0001, cin = 1, sum = 1011, cout = 0
# MON a = 1001, b = 0010, cin = 1, sum = 1100, cout = 0
# MON a = 1001, b = 0011, cin = 1, sum = 1101, cout = 0
# MON a = 1001, b = 0100, cin = 1, sum = 1110, cout = 0
# MON a = 1001, b = 0101, cin = 1, sum = 1111, cout = 0
# MON a = 1001, b = 0110, cin = 1, sum = 0000, cout = 1
# MON a = 1001, b = 0111, cin = 1, sum = 0001, cout = 1
# MON a = 1001, b = 1000, cin = 1, sum = 0010, cout = 1
# MON a = 1001, b = 1001, cin = 1, sum = 0011, cout = 1
# MON a = 1001, b = 1010, cin = 1, sum = 0100, cout = 1
# MON a = 1001, b = 1011, cin = 1, sum = 0101, cout = 1
# MON a = 1001, b = 1100, cin = 1, sum = 0110, cout = 1
# MON a = 1001, b = 1101, cin = 1, sum = 0111, cout = 1
# MON a = 1001, b = 1110, cin = 1, sum = 1000, cout = 1
# MON a = 1001, b = 1111, cin = 1, sum = 1001, cout = 1
# MON a = 1010, b = 0000, cin = 1, sum = 1011, cout = 0
# MON a = 1010, b = 0001, cin = 1, sum = 1100, cout = 0
# MON a = 1010, b = 0010, cin = 1, sum = 1101, cout = 0
# MON a = 1010, b = 0011, cin = 1, sum = 1110, cout = 0
# MON a = 1010, b = 0100, cin = 1, sum = 1111, cout = 0
# MON a = 1010, b = 0101, cin = 1, sum = 0000, cout = 1
# MON a = 1010, b = 0110, cin = 1, sum = 0001, cout = 1
# MON a = 1010, b = 0111, cin = 1, sum = 0010, cout = 1
# MON a = 1010, b = 1000, cin = 1, sum = 0011, cout = 1
# MON a = 1010, b = 1001, cin = 1, sum = 0100, cout = 1
# MON a = 1010, b = 1010, cin = 1, sum = 0101, cout = 1
# MON a = 1010, b = 1011, cin = 1, sum = 0110, cout = 1
# MON a = 1010, b = 1100, cin = 1, sum = 0111, cout = 1
# MON a = 1010, b = 1101, cin = 1, sum = 1000, cout = 1
# MON a = 1010, b = 1110, cin = 1, sum = 1001, cout = 1
# MON a = 1010, b = 1111, cin = 1, sum = 1010, cout = 1
# MON a = 1011, b = 0000, cin = 1, sum = 1100, cout = 0
# MON a = 1011, b = 0001, cin = 1, sum = 1101, cout = 0
# MON a = 1011, b = 0010, cin = 1, sum = 1110, cout = 0
# MON a = 1011, b = 0011, cin = 1, sum = 1111, cout = 0
# MON a = 1011, b = 0100, cin = 1, sum = 0000, cout = 1
# MON a = 1011, b = 0101, cin = 1, sum = 0001, cout = 1
# MON a = 1011, b = 0110, cin = 1, sum = 0010, cout = 1
# MON a = 1011, b = 0111, cin = 1, sum = 0011, cout = 1
# MON a = 1011, b = 1000, cin = 1, sum = 0100, cout = 1
# MON a = 1011, b = 1001, cin = 1, sum = 0101, cout = 1
# MON a = 1011, b = 1010, cin = 1, sum = 0110, cout = 1
# MON a = 1011, b = 1011, cin = 1, sum = 0111, cout = 1
# MON a = 1011, b = 1100, cin = 1, sum = 1000, cout = 1
# MON a = 1011, b = 1101, cin = 1, sum = 1001, cout = 1
# MON a = 1011, b = 1110, cin = 1, sum = 1010, cout = 1
# MON a = 1011, b = 1111, cin = 1, sum = 1011, cout = 1
# MON a = 1100, b = 0000, cin = 1, sum = 1101, cout = 0
# MON a = 1100, b = 0001, cin = 1, sum = 1110, cout = 0
# MON a = 1100, b = 0010, cin = 1, sum = 1111, cout = 0
# MON a = 1100, b = 0011, cin = 1, sum = 0000, cout = 1
# MON a = 1100, b = 0100, cin = 1, sum = 0001, cout = 1
# MON a = 1100, b = 0101, cin = 1, sum = 0010, cout = 1
# MON a = 1100, b = 0110, cin = 1, sum = 0011, cout = 1
# MON a = 1100, b = 0111, cin = 1, sum = 0100, cout = 1
# MON a = 1100, b = 1000, cin = 1, sum = 0101, cout = 1
# MON a = 1100, b = 1001, cin = 1, sum = 0110, cout = 1
# MON a = 1100, b = 1010, cin = 1, sum = 0111, cout = 1
# MON a = 1100, b = 1011, cin = 1, sum = 1000, cout = 1
# MON a = 1100, b = 1100, cin = 1, sum = 1001, cout = 1
# MON a = 1100, b = 1101, cin = 1, sum = 1010, cout = 1
# MON a = 1100, b = 1110, cin = 1, sum = 1011, cout = 1
# MON a = 1100, b = 1111, cin = 1, sum = 1100, cout = 1
# MON a = 1101, b = 0000, cin = 1, sum = 1110, cout = 0
# MON a = 1101, b = 0001, cin = 1, sum = 1111, cout = 0
# MON a = 1101, b = 0010, cin = 1, sum = 0000, cout = 1
# MON a = 1101, b = 0011, cin = 1, sum = 0001, cout = 1
# MON a = 1101, b = 0100, cin = 1, sum = 0010, cout = 1
# MON a = 1101, b = 0101, cin = 1, sum = 0011, cout = 1
# MON a = 1101, b = 0110, cin = 1, sum = 0100, cout = 1
# MON a = 1101, b = 0111, cin = 1, sum = 0101, cout = 1
# MON a = 1101, b = 1000, cin = 1, sum = 0110, cout = 1
# MON a = 1101, b = 1001, cin = 1, sum = 0111, cout = 1
# MON a = 1101, b = 1010, cin = 1, sum = 1000, cout = 1
# MON a = 1101, b = 1011, cin = 1, sum = 1001, cout = 1
# MON a = 1101, b = 1100, cin = 1, sum = 1010, cout = 1
# MON a = 1101, b = 1101, cin = 1, sum = 1011, cout = 1
# MON a = 1101, b = 1110, cin = 1, sum = 1100, cout = 1
# MON a = 1101, b = 1111, cin = 1, sum = 1101, cout = 1
# MON a = 1110, b = 0000, cin = 1, sum = 1111, cout = 0
# MON a = 1110, b = 0001, cin = 1, sum = 0000, cout = 1
# MON a = 1110, b = 0010, cin = 1, sum = 0001, cout = 1
# MON a = 1110, b = 0011, cin = 1, sum = 0010, cout = 1
# MON a = 1110, b = 0100, cin = 1, sum = 0011, cout = 1
# MON a = 1110, b = 0101, cin = 1, sum = 0100, cout = 1
# MON a = 1110, b = 0110, cin = 1, sum = 0101, cout = 1
# MON a = 1110, b = 0111, cin = 1, sum = 0110, cout = 1
# MON a = 1110, b = 1000, cin = 1, sum = 0111, cout = 1
# MON a = 1110, b = 1001, cin = 1, sum = 1000, cout = 1
# MON a = 1110, b = 1010, cin = 1, sum = 1001, cout = 1
# MON a = 1110, b = 1011, cin = 1, sum = 1010, cout = 1
# MON a = 1110, b = 1100, cin = 1, sum = 1011, cout = 1
# MON a = 1110, b = 1101, cin = 1, sum = 1100, cout = 1
# MON a = 1110, b = 1110, cin = 1, sum = 1101, cout = 1
# MON a = 1110, b = 1111, cin = 1, sum = 1110, cout = 1
# MON a = 1111, b = 0000, cin = 1, sum = 0000, cout = 1
# MON a = 1111, b = 0001, cin = 1, sum = 0001, cout = 1
# MON a = 1111, b = 0010, cin = 1, sum = 0010, cout = 1
# MON a = 1111, b = 0011, cin = 1, sum = 0011, cout = 1
# MON a = 1111, b = 0100, cin = 1, sum = 0100, cout = 1
# MON a = 1111, b = 0101, cin = 1, sum = 0101, cout = 1
# MON a = 1111, b = 0110, cin = 1, sum = 0110, cout = 1
# MON a = 1111, b = 0111, cin = 1, sum = 0111, cout = 1
# MON a = 1111, b = 1000, cin = 1, sum = 1000, cout = 1
# MON a = 1111, b = 1001, cin = 1, sum = 1001, cout = 1
# MON a = 1111, b = 1010, cin = 1, sum = 1010, cout = 1
# MON a = 1111, b = 1011, cin = 1, sum = 1011, cout = 1
# MON a = 1111, b = 1100, cin = 1, sum = 1100, cout = 1
# MON a = 1111, b = 1101, cin = 1, sum = 1101, cout = 1
# MON a = 1111, b = 1110, cin = 1, sum = 1110, cout = 1
# MON a = 1111, b = 1111, cin = 1, sum = 1111, cout = 1
restart -f
project compileoutofdate
# Compile of ripple_carry_adder_tb.v failed with 2 errors.
project compileoutofdate
# Compile of ripple_carry_adder_tb.v was successful.
restart -f
# Loading work.ripple_carry_adder_tb
run -all
# MON a = xxxx, b = xxxx, cin = x, sum = xxxx, cout = x
# MON a = 0000, b = 0000, cin = 0, sum = 0000, cout = 0
# MON a = 0001, b = 0000, cin = 1, sum = 0010, cout = 0
# MON a = 0001, b = 0001, cin = 0, sum = 0010, cout = 0
# MON a = 0001, b = 0001, cin = 1, sum = 0011, cout = 0
# MON a = 0011, b = 0110, cin = 0, sum = 1001, cout = 0
# MON a = 1111, b = 1111, cin = 1, sum = 1111, cout = 1
# MON a = 0000, b = 0000, cin = 1, sum = 0001, cout = 0
# MON a = 0000, b = 0001, cin = 1, sum = 0010, cout = 0
# MON a = 0000, b = 0010, cin = 1, sum = 0011, cout = 0
# MON a = 0000, b = 0011, cin = 1, sum = 0100, cout = 0
# MON a = 0000, b = 0100, cin = 1, sum = 0101, cout = 0
# MON a = 0000, b = 0101, cin = 1, sum = 0110, cout = 0
# MON a = 0000, b = 0110, cin = 1, sum = 0111, cout = 0
# MON a = 0000, b = 0111, cin = 1, sum = 1000, cout = 0
# MON a = 0000, b = 1000, cin = 1, sum = 1001, cout = 0
# MON a = 0000, b = 1001, cin = 1, sum = 1010, cout = 0
# MON a = 0000, b = 1010, cin = 1, sum = 1011, cout = 0
# MON a = 0000, b = 1011, cin = 1, sum = 1100, cout = 0
# MON a = 0000, b = 1100, cin = 1, sum = 1101, cout = 0
# MON a = 0000, b = 1101, cin = 1, sum = 1110, cout = 0
# MON a = 0000, b = 1110, cin = 1, sum = 1111, cout = 0
# MON a = 0000, b = 1111, cin = 1, sum = 0000, cout = 1
# MON a = 0001, b = 0000, cin = 1, sum = 0010, cout = 0
# MON a = 0001, b = 0001, cin = 1, sum = 0011, cout = 0
# MON a = 0001, b = 0010, cin = 1, sum = 0100, cout = 0
# MON a = 0001, b = 0011, cin = 1, sum = 0101, cout = 0
# MON a = 0001, b = 0100, cin = 1, sum = 0110, cout = 0
# MON a = 0001, b = 0101, cin = 1, sum = 0111, cout = 0
# MON a = 0001, b = 0110, cin = 1, sum = 1000, cout = 0
# MON a = 0001, b = 0111, cin = 1, sum = 1001, cout = 0
# MON a = 0001, b = 1000, cin = 1, sum = 1010, cout = 0
# MON a = 0001, b = 1001, cin = 1, sum = 1011, cout = 0
# MON a = 0001, b = 1010, cin = 1, sum = 1100, cout = 0
# MON a = 0001, b = 1011, cin = 1, sum = 1101, cout = 0
# MON a = 0001, b = 1100, cin = 1, sum = 1110, cout = 0
# MON a = 0001, b = 1101, cin = 1, sum = 1111, cout = 0
# MON a = 0001, b = 1110, cin = 1, sum = 0000, cout = 1
# MON a = 0001, b = 1111, cin = 1, sum = 0001, cout = 1
# MON a = 0010, b = 0000, cin = 1, sum = 0011, cout = 0
# MON a = 0010, b = 0001, cin = 1, sum = 0100, cout = 0
# MON a = 0010, b = 0010, cin = 1, sum = 0101, cout = 0
# MON a = 0010, b = 0011, cin = 1, sum = 0110, cout = 0
# MON a = 0010, b = 0100, cin = 1, sum = 0111, cout = 0
# MON a = 0010, b = 0101, cin = 1, sum = 1000, cout = 0
# MON a = 0010, b = 0110, cin = 1, sum = 1001, cout = 0
# MON a = 0010, b = 0111, cin = 1, sum = 1010, cout = 0
# MON a = 0010, b = 1000, cin = 1, sum = 1011, cout = 0
# MON a = 0010, b = 1001, cin = 1, sum = 1100, cout = 0
# MON a = 0010, b = 1010, cin = 1, sum = 1101, cout = 0
# MON a = 0010, b = 1011, cin = 1, sum = 1110, cout = 0
# MON a = 0010, b = 1100, cin = 1, sum = 1111, cout = 0
# MON a = 0010, b = 1101, cin = 1, sum = 0000, cout = 1
# MON a = 0010, b = 1110, cin = 1, sum = 0001, cout = 1
# MON a = 0010, b = 1111, cin = 1, sum = 0010, cout = 1
# MON a = 0011, b = 0000, cin = 1, sum = 0100, cout = 0
# MON a = 0011, b = 0001, cin = 1, sum = 0101, cout = 0
# MON a = 0011, b = 0010, cin = 1, sum = 0110, cout = 0
# MON a = 0011, b = 0011, cin = 1, sum = 0111, cout = 0
# MON a = 0011, b = 0100, cin = 1, sum = 1000, cout = 0
# MON a = 0011, b = 0101, cin = 1, sum = 1001, cout = 0
# MON a = 0011, b = 0110, cin = 1, sum = 1010, cout = 0
# MON a = 0011, b = 0111, cin = 1, sum = 1011, cout = 0
# MON a = 0011, b = 1000, cin = 1, sum = 1100, cout = 0
# MON a = 0011, b = 1001, cin = 1, sum = 1101, cout = 0
# MON a = 0011, b = 1010, cin = 1, sum = 1110, cout = 0
# MON a = 0011, b = 1011, cin = 1, sum = 1111, cout = 0
# MON a = 0011, b = 1100, cin = 1, sum = 0000, cout = 1
# MON a = 0011, b = 1101, cin = 1, sum = 0001, cout = 1
# MON a = 0011, b = 1110, cin = 1, sum = 0010, cout = 1
# MON a = 0011, b = 1111, cin = 1, sum = 0011, cout = 1
# MON a = 0100, b = 0000, cin = 1, sum = 0101, cout = 0
# MON a = 0100, b = 0001, cin = 1, sum = 0110, cout = 0
# MON a = 0100, b = 0010, cin = 1, sum = 0111, cout = 0
# MON a = 0100, b = 0011, cin = 1, sum = 1000, cout = 0
# MON a = 0100, b = 0100, cin = 1, sum = 1001, cout = 0
# MON a = 0100, b = 0101, cin = 1, sum = 1010, cout = 0
# MON a = 0100, b = 0110, cin = 1, sum = 1011, cout = 0
# MON a = 0100, b = 0111, cin = 1, sum = 1100, cout = 0
# MON a = 0100, b = 1000, cin = 1, sum = 1101, cout = 0
# MON a = 0100, b = 1001, cin = 1, sum = 1110, cout = 0
# MON a = 0100, b = 1010, cin = 1, sum = 1111, cout = 0
# MON a = 0100, b = 1011, cin = 1, sum = 0000, cout = 1
# MON a = 0100, b = 1100, cin = 1, sum = 0001, cout = 1
# MON a = 0100, b = 1101, cin = 1, sum = 0010, cout = 1
# MON a = 0100, b = 1110, cin = 1, sum = 0011, cout = 1
# MON a = 0100, b = 1111, cin = 1, sum = 0100, cout = 1
# MON a = 0101, b = 0000, cin = 1, sum = 0110, cout = 0
# MON a = 0101, b = 0001, cin = 1, sum = 0111, cout = 0
# MON a = 0101, b = 0010, cin = 1, sum = 1000, cout = 0
# MON a = 0101, b = 0011, cin = 1, sum = 1001, cout = 0
# MON a = 0101, b = 0100, cin = 1, sum = 1010, cout = 0
# MON a = 0101, b = 0101, cin = 1, sum = 1011, cout = 0
# MON a = 0101, b = 0110, cin = 1, sum = 1100, cout = 0
# MON a = 0101, b = 0111, cin = 1, sum = 1101, cout = 0
# MON a = 0101, b = 1000, cin = 1, sum = 1110, cout = 0
# MON a = 0101, b = 1001, cin = 1, sum = 1111, cout = 0
# MON a = 0101, b = 1010, cin = 1, sum = 0000, cout = 1
# MON a = 0101, b = 1011, cin = 1, sum = 0001, cout = 1
# MON a = 0101, b = 1100, cin = 1, sum = 0010, cout = 1
# MON a = 0101, b = 1101, cin = 1, sum = 0011, cout = 1
# MON a = 0101, b = 1110, cin = 1, sum = 0100, cout = 1
# MON a = 0101, b = 1111, cin = 1, sum = 0101, cout = 1
# MON a = 0110, b = 0000, cin = 1, sum = 0111, cout = 0
# MON a = 0110, b = 0001, cin = 1, sum = 1000, cout = 0
# MON a = 0110, b = 0010, cin = 1, sum = 1001, cout = 0
# MON a = 0110, b = 0011, cin = 1, sum = 1010, cout = 0
# MON a = 0110, b = 0100, cin = 1, sum = 1011, cout = 0
# MON a = 0110, b = 0101, cin = 1, sum = 1100, cout = 0
